<?xml version="1.0" encoding="UTF-8"?>
<svg width="16px" height="18px" viewBox="0 0 16 18" version="1.1" xmlns="http://www.w3.org/2000/svg" xmlns:xlink="http://www.w3.org/1999/xlink">
    <title>icon-tail-right</title>
    <g id="Page-1" stroke="none" stroke-width="1" fill="none" fill-rule="evenodd">
        <g id="MARIA-DUOL_ficha_cro_1440px" transform="translate(-1274.000000, -1072.000000)">
            <g id="opiniones" transform="translate(800.000000, 1056.000000)">
                <g id="flechas" transform="translate(399.000000, 0.000000)">
                    <g id="icon-right-square" transform="translate(57.000000, 0.000000)">
                        <g id="icon-tail-right" transform="translate(18.000000, 16.000000)">
                            <g id="átomo-/-icon-/-32px-/-tail-right" transform="translate(5.000000, 0.000000)"></g>
                            <line x1="-1.70527481e-12" y1="9" x2="14" y2="9" id="Path" stroke="#000000" stroke-width="2"></line>
                            <polyline id="Path" stroke="#000000" stroke-width="2" points="7 2 14 9 7 16"></polyline>
                        </g>
                    </g>
                </g>
            </g>
        </g>
    </g>
</svg>