<?xml version="1.0" encoding="UTF-8"?>
<svg width="14px" height="14px" viewBox="0 0 14 14" version="1.1" xmlns="http://www.w3.org/2000/svg" xmlns:xlink="http://www.w3.org/1999/xlink">
    <title>icon-cerrar-popup</title>
    <g id="Page-1" stroke="none" stroke-width="1" fill="none" fill-rule="evenodd">
        <g id="MARIA-DUOL_pop-up_1440px-" transform="translate(-1040.000000, -177.000000)" stroke="#727272" stroke-width="2">
            <g id="pop-up" transform="translate(379.000000, 151.000000)">
                <g id="cerrar" transform="translate(652.000000, 17.000000)">
                    <g id="icon-cerrar" transform="translate(10.000000, 10.000000)">
                        <line x1="12" y1="0" x2="0" y2="12" id="Path"></line>
                        <line x1="12" y1="12" x2="0" y2="0" id="Path"></line>
                    </g>
                </g>
            </g>
        </g>
    </g>
</svg>