<?xml version="1.0" encoding="UTF-8"?>
<svg width="32px" height="32px" viewBox="0 0 32 32" version="1.1" xmlns="http://www.w3.org/2000/svg" xmlns:xlink="http://www.w3.org/1999/xlink">
    <title>icon-info</title>
    <g id="Page-1" stroke="none" stroke-width="1" fill="none" fill-rule="evenodd">
        <g id="MARIA-DUOL_ficha_cro_1440px" transform="translate(-844.000000, -761.000000)" stroke="#BEBEBE" stroke-width="2">
            <g id="txt" transform="translate(840.000000, 278.000000)">
                <g id="destacado-01" transform="translate(5.000000, 483.000000)">
                    <g id="átomo-/-icon-/-32px-/-basics-/-alert-square-i" transform="translate(0.000000, 1.000000)">
                        <rect id="Rectangle" x="0" y="0" width="30" height="30" rx="15"></rect>
                        <g id="Group" transform="translate(12.000000, 7.000000)">
                            <polyline id="Path" points="0 4.8 3.2 4.8 3.2 15.2"></polyline>
                            <line x1="0" y1="15.2" x2="6.4" y2="15.2" id="Path"></line>
                            <circle id="Oval" cx="3.2" cy="0.8" r="1"></circle>
                        </g>
                    </g>
                </g>
            </g>
        </g>
    </g>
</svg>