<?xml version="1.0" encoding="UTF-8"?>
<svg width="28px" height="32px" viewBox="0 0 28 32" version="1.1" xmlns="http://www.w3.org/2000/svg" xmlns:xlink="http://www.w3.org/1999/xlink">
    <title>icon-fabricamos</title>
    <g id="Page-1" stroke="none" stroke-width="1" fill="none" fill-rule="evenodd">
        <g id="MARIA-DUOL_ficha_cro_1440px" transform="translate(-1102.000000, -838.000000)" stroke="#BEBEBE" stroke-width="2">
            <g id="txt" transform="translate(840.000000, 278.000000)">
                <g id="destacado-04" transform="translate(260.000000, 559.000000)">
                    <g id="átomo/icon/32px/healthcare-medical/microscope" transform="translate(0.000000, 1.000000)">
                        <line x1="8.231" y1="8.337" x2="13.14" y2="5.889" id="Path"></line>
                        <line x1="13" y1="23" x2="29" y2="23" id="Path"></line>
                        <rect id="Rectangle" x="3" y="27" width="26" height="4"></rect>
                        <polygon id="Path" points="18 15.448 13.11 17.934 6.273 4.486 11.163 2 11.163 2"></polygon>
                        <path d="M9,27 L3,27 L3,20 L3,20 C6.314,20 9,22.686 9,26 L9,27 Z" id="Path"></path>
                        <path d="M8.204,8.285 C5.08,10.145 3,13.056 3,17 L3,20" id="Path"></path>
                    </g>
                </g>
            </g>
        </g>
    </g>
</svg>