<?xml version="1.0" encoding="UTF-8"?>
<svg width="18px" height="17px" viewBox="0 0 18 17" version="1.1" xmlns="http://www.w3.org/2000/svg" xmlns:xlink="http://www.w3.org/1999/xlink">
    <title>icon-etrella-03</title>
    <g id="Page-1" stroke="none" stroke-width="1" fill="none" fill-rule="evenodd">
        <g id="MARIA-DUOL_ficha_cro_1440px" transform="translate(-1287.000000, -1179.000000)" stroke="#010000">
            <g id="opiniones" transform="translate(800.000000, 1056.000000)">
                <g id="opinión01" transform="translate(0.000000, 112.000000)">
                    <g id="valoraciones" transform="translate(403.000000, 11.000000)">
                        <path d="M93,1.5977766 L94.6779619,6.6904836 L100.039933,6.71258717 L95.7149994,9.88215677 L97.3509177,14.9885245 L93,11.8547193 L88.6490823,14.9885245 L90.2850006,9.88215677 L85.9600672,6.71258717 L91.3220381,6.6904836 L93,1.5977766 Z" id="icon-etrella-03"></path>
                    </g>
                </g>
            </g>
        </g>
    </g>
</svg>