<?xml version="1.0" encoding="UTF-8"?>
<svg width="32px" height="32px" viewBox="0 0 32 32" version="1.1" xmlns="http://www.w3.org/2000/svg" xmlns:xlink="http://www.w3.org/1999/xlink">
    <title>icon-garantia</title>
    <g id="Page-1" stroke="none" stroke-width="1" fill="none" fill-rule="evenodd">
        <g id="MARIA-DUOL_ficha_cro_1440px" transform="translate(-1100.000000, -762.000000)" stroke="#BEBEBE" stroke-width="2">
            <g id="txt" transform="translate(840.000000, 278.000000)">
                <g id="destacado-02" transform="translate(260.000000, 483.000000)">
                    <g id="átomo-/-icon-/-32px-/-basics-/-check-circle-08" transform="translate(0.000000, 1.000000)">
                        <polyline id="Path" points="9 17 13 21 23 11"></polyline>
                        <circle id="Oval" cx="16" cy="16" r="15"></circle>
                    </g>
                </g>
            </g>
        </g>
    </g>
</svg>