<?xml version="1.0" encoding="UTF-8"?>
<svg width="22px" height="32px" viewBox="0 0 22 32" version="1.1" xmlns="http://www.w3.org/2000/svg" xmlns:xlink="http://www.w3.org/1999/xlink">
    <title>icon-destacado</title>
    <g id="Page-1" stroke="none" stroke-width="1" fill="none" fill-rule="evenodd">
        <g id="MARIA-DUOL_ficha_cro_1440px" transform="translate(-849.000000, -762.000000)" stroke="#BEBEBE" stroke-width="2">
            <g id="átomo/icon/32px/shopping/award" transform="translate(844.000000, 761.000000)">
                <polyline id="Path" points="23 19.14 23 31 16 28 9 31 9 19.14"></polyline>
                <circle id="Oval" cx="16" cy="12" r="10"></circle>
            </g>
        </g>
    </g>
</svg>